^C:\USERS\MOLOTALIEV\DESKTOP\IRAY\IRAY-DETECTOR-CAPTURE-TOOL-MASTER\SRC\IRAY DETECTOR CAPTURE TOOL\DEBUG\.NETFRAMEWORK,VERSION=V4.0.ASSEMBLYATTRIBUTES.OBJ|C:\USERS\MOLOTALIEV\DESKTOP\IRAY\IRAY-DETECTOR-CAPTURE-TOOL-MASTER\SRC\IRAY DETECTOR CAPTURE TOOL\DEBUG\APP.RES|C:\USERS\MOLOTALIEV\DESKTOP\IRAY\IRAY-DETECTOR-CAPTURE-TOOL-MASTER\SRC\IRAY DETECTOR CAPTURE TOOL\DEBUG\ASSEMBLYINFO.OBJ|C:\USERS\MOLOTALIEV\DESKTOP\IRAY\IRAY-DETECTOR-CAPTURE-TOOL-MASTER\SRC\IRAY DETECTOR CAPTURE TOOL\DEBUG\DETECTOR.OBJ|C:\USERS\MOLOTALIEV\DESKTOP\IRAY\IRAY-DETECTOR-CAPTURE-TOOL-MASTER\SRC\IRAY DETECTOR CAPTURE TOOL\DEBUG\DETECTORMANAGER.OBJ|C:\USERS\MOLOTALIEV\DESKTOP\IRAY\IRAY-DETECTOR-CAPTURE-TOOL-MASTER\SRC\IRAY DETECTOR CAPTURE TOOL\DEBUG\FLR_P.OBJ|C:\USERS\MOLOTALIEV\DESKTOP\IRAY\IRAY-DETECTOR-CAPTURE-TOOL-MASTER\SRC\IRAY DETECTOR CAPTURE TOOL\DEBUG\IRAY DETECTOR CAPTURE TOOL.OBJ|C:\USERS\MOLOTALIEV\DESKTOP\IRAY\IRAY-DETECTOR-CAPTURE-TOOL-MASTER\SRC\IRAY DETECTOR CAPTURE TOOL\DEBUG\STDAFX.OBJ|C:\USERS\MOLOTALIEV\DESKTOP\IRAY\IRAY-DETECTOR-CAPTURE-TOOL-MASTER\SRC\IRAY DETECTOR CAPTURE TOOL\DEBUG\UTIL.OBJ|C:\USERS\MOLOTALIEV\DESKTOP\IRAY\IRAY-DETECTOR-CAPTURE-TOOL-MASTER\SRC\IRAY DETECTOR CAPTURE TOOL\DEBUG\WFEVENTRECEIVER.OBJ
C:\PROGRAM FILES (X86)\MICROSOFT SDKS\WINDOWS\V7.0A\LIB\KERNEL32.LIB
C:\PROGRAM FILES (X86)\MICROSOFT SDKS\WINDOWS\V7.0A\LIB\USER32.LIB
C:\PROGRAM FILES (X86)\MICROSOFT SDKS\WINDOWS\V7.0A\LIB\GDI32.LIB
C:\PROGRAM FILES (X86)\MICROSOFT SDKS\WINDOWS\V7.0A\LIB\WINSPOOL.LIB
C:\PROGRAM FILES (X86)\MICROSOFT SDKS\WINDOWS\V7.0A\LIB\COMDLG32.LIB
C:\PROGRAM FILES (X86)\MICROSOFT SDKS\WINDOWS\V7.0A\LIB\ADVAPI32.LIB
C:\PROGRAM FILES (X86)\MICROSOFT SDKS\WINDOWS\V7.0A\LIB\SHELL32.LIB
C:\PROGRAM FILES (X86)\MICROSOFT SDKS\WINDOWS\V7.0A\LIB\OLE32.LIB
C:\PROGRAM FILES (X86)\MICROSOFT SDKS\WINDOWS\V7.0A\LIB\OLEAUT32.LIB
C:\PROGRAM FILES (X86)\MICROSOFT SDKS\WINDOWS\V7.0A\LIB\UUID.LIB
C:\PROGRAM FILES (X86)\MICROSOFT SDKS\WINDOWS\V7.0A\LIB\ODBC32.LIB
C:\PROGRAM FILES (X86)\MICROSOFT SDKS\WINDOWS\V7.0A\LIB\ODBCCP32.LIB
C:\USERS\MOLOTALIEV\DESKTOP\IRAY\IRAY-DETECTOR-CAPTURE-TOOL-MASTER\SRC\IRAY DETECTOR CAPTURE TOOL\DEBUG\APP.RES
C:\USERS\MOLOTALIEV\DESKTOP\IRAY\IRAY-DETECTOR-CAPTURE-TOOL-MASTER\SRC\IRAY DETECTOR CAPTURE TOOL\DEBUG\ASSEMBLYINFO.OBJ
C:\USERS\MOLOTALIEV\DESKTOP\IRAY\IRAY-DETECTOR-CAPTURE-TOOL-MASTER\SRC\IRAY DETECTOR CAPTURE TOOL\DEBUG\FLR_P.OBJ
C:\USERS\MOLOTALIEV\DESKTOP\IRAY\IRAY-DETECTOR-CAPTURE-TOOL-MASTER\SRC\IRAY DETECTOR CAPTURE TOOL\DEBUG\IRAY DETECTOR CAPTURE TOOL.OBJ
C:\USERS\MOLOTALIEV\DESKTOP\IRAY\IRAY-DETECTOR-CAPTURE-TOOL-MASTER\SRC\IRAY DETECTOR CAPTURE TOOL\DEBUG\DETECTOR.OBJ
C:\USERS\MOLOTALIEV\DESKTOP\IRAY\IRAY-DETECTOR-CAPTURE-TOOL-MASTER\SRC\IRAY DETECTOR CAPTURE TOOL\DEBUG\DETECTORMANAGER.OBJ
C:\USERS\MOLOTALIEV\DESKTOP\IRAY\IRAY-DETECTOR-CAPTURE-TOOL-MASTER\SRC\IRAY DETECTOR CAPTURE TOOL\DEBUG\UTIL.OBJ
C:\USERS\MOLOTALIEV\DESKTOP\IRAY\IRAY-DETECTOR-CAPTURE-TOOL-MASTER\SRC\IRAY DETECTOR CAPTURE TOOL\DEBUG\WFEVENTRECEIVER.OBJ
C:\USERS\MOLOTALIEV\DESKTOP\IRAY\IRAY-DETECTOR-CAPTURE-TOOL-MASTER\SRC\IRAY DETECTOR CAPTURE TOOL\DEBUG\STDAFX.OBJ
C:\USERS\MOLOTALIEV\DESKTOP\IRAY\IRAY-DETECTOR-CAPTURE-TOOL-MASTER\SRC\IRAY DETECTOR CAPTURE TOOL\DEBUG\.NETFRAMEWORK,VERSION=V4.0.ASSEMBLYATTRIBUTES.OBJ
C:\WINDOWS\SYSTEM32\TZRES.DLL
C:\WINDOWS\GLOBALIZATION\SORTING\SORTDEFAULT.NLS
C:\PROGRAM FILES (X86)\MICROSOFT VISUAL STUDIO 10.0\VC\BIN\LINK.EXE
C:\WINDOWS\WINSXS\X86_MICROSOFT.VC90.CRT_1FC8B3B9A1E18E3B_9.0.30729.6161_NONE_50934F2EBCB7EB57\MSVCR90.DLL
C:\WINDOWS\SYSTEM32\RSAENH.DLL
C:\WINDOWS\MICROSOFT.NET\FRAMEWORK\V2.0.50727\MSCORWKS.DLL
C:\WINDOWS\MICROSOFT.NET\FRAMEWORK\V4.0.30319\CLR.DLL
C:\PROGRAM FILES (X86)\MICROSOFT VISUAL STUDIO 10.0\VC\BIN\LINK.EXE.CONFIG
C:\PROGRAM FILES (X86)\MICROSOFT VISUAL STUDIO 10.0\VC\LIB\MSVCRTD.LIB
C:\PROGRAM FILES (X86)\MICROSOFT VISUAL STUDIO 10.0\VC\LIB\OLDNAMES.LIB
C:\PROGRAM FILES (X86)\MICROSOFT VISUAL STUDIO 10.0\VC\LIB\MSVCMRTD.LIB
C:\PROGRAM FILES (X86)\MICROSOFT SDKS\WINDOWS\V7.0A\LIB\MSCOREE.LIB
C:\PROGRAM FILES (X86)\MICROSOFT VISUAL STUDIO 10.0\VC\LIB\MSVCPRTD.LIB
C:\PROGRAM FILES (X86)\MICROSOFT VISUAL STUDIO 10.0\VC\BIN\CVTRES.EXE
C:\USERS\MOLOTALIEV\DESKTOP\IRAY\IRAY-DETECTOR-CAPTURE-TOOL-MASTER\SRC\IRAY DETECTOR CAPTURE TOOL\DEBUG\IRAYDETECTORCAPTURETOOL.MAINVIEW.RESOURCES
