^C:\USERS\MOLOTALIEV\DESKTOP\IRAY\IRAY-DETECTOR-CAPTURE-TOOL-MASTER\SRC\IRAY DETECTOR CAPTURE TOOL\APP.RC
C:\USERS\MOLOTALIEV\DESKTOP\IRAY\IRAY-DETECTOR-CAPTURE-TOOL-MASTER\SRC\IRAY DETECTOR CAPTURE TOOL\RESOURCE.H
C:\USERS\MOLOTALIEV\DESKTOP\IRAY\IRAY-DETECTOR-CAPTURE-TOOL-MASTER\SRC\IRAY DETECTOR CAPTURE TOOL\APP.ICO
