^C:\USERS\MOLOTALIEV\DESKTOP\IRAY\IRAY-DETECTOR-CAPTURE-TOOL-MASTER\SRC\IRAY DETECTOR CAPTURE TOOL\RELEASE\.NETFRAMEWORK,VERSION=V4.0.ASSEMBLYATTRIBUTES.OBJ|C:\USERS\MOLOTALIEV\DESKTOP\IRAY\IRAY-DETECTOR-CAPTURE-TOOL-MASTER\SRC\IRAY DETECTOR CAPTURE TOOL\RELEASE\APP.RES|C:\USERS\MOLOTALIEV\DESKTOP\IRAY\IRAY-DETECTOR-CAPTURE-TOOL-MASTER\SRC\IRAY DETECTOR CAPTURE TOOL\RELEASE\ASSEMBLYINFO.OBJ|C:\USERS\MOLOTALIEV\DESKTOP\IRAY\IRAY-DETECTOR-CAPTURE-TOOL-MASTER\SRC\IRAY DETECTOR CAPTURE TOOL\RELEASE\DETECTOR.OBJ|C:\USERS\MOLOTALIEV\DESKTOP\IRAY\IRAY-DETECTOR-CAPTURE-TOOL-MASTER\SRC\IRAY DETECTOR CAPTURE TOOL\RELEASE\DETECTORMANAGER.OBJ|C:\USERS\MOLOTALIEV\DESKTOP\IRAY\IRAY-DETECTOR-CAPTURE-TOOL-MASTER\SRC\IRAY DETECTOR CAPTURE TOOL\RELEASE\FLR_P.OBJ|C:\USERS\MOLOTALIEV\DESKTOP\IRAY\IRAY-DETECTOR-CAPTURE-TOOL-MASTER\SRC\IRAY DETECTOR CAPTURE TOOL\RELEASE\IRAY DETECTOR CAPTURE TOOL.OBJ|C:\USERS\MOLOTALIEV\DESKTOP\IRAY\IRAY-DETECTOR-CAPTURE-TOOL-MASTER\SRC\IRAY DETECTOR CAPTURE TOOL\RELEASE\STDAFX.OBJ|C:\USERS\MOLOTALIEV\DESKTOP\IRAY\IRAY-DETECTOR-CAPTURE-TOOL-MASTER\SRC\IRAY DETECTOR CAPTURE TOOL\RELEASE\UTIL.OBJ|C:\USERS\MOLOTALIEV\DESKTOP\IRAY\IRAY-DETECTOR-CAPTURE-TOOL-MASTER\SRC\IRAY DETECTOR CAPTURE TOOL\RELEASE\WFEVENTRECEIVER.OBJ
C:\PROGRAM FILES (X86)\MICROSOFT SDKS\WINDOWS\V7.0A\LIB\KERNEL32.LIB
C:\PROGRAM FILES (X86)\MICROSOFT SDKS\WINDOWS\V7.0A\LIB\USER32.LIB
C:\PROGRAM FILES (X86)\MICROSOFT SDKS\WINDOWS\V7.0A\LIB\GDI32.LIB
C:\PROGRAM FILES (X86)\MICROSOFT SDKS\WINDOWS\V7.0A\LIB\WINSPOOL.LIB
C:\PROGRAM FILES (X86)\MICROSOFT SDKS\WINDOWS\V7.0A\LIB\COMDLG32.LIB
C:\PROGRAM FILES (X86)\MICROSOFT SDKS\WINDOWS\V7.0A\LIB\ADVAPI32.LIB
C:\PROGRAM FILES (X86)\MICROSOFT SDKS\WINDOWS\V7.0A\LIB\SHELL32.LIB
C:\PROGRAM FILES (X86)\MICROSOFT SDKS\WINDOWS\V7.0A\LIB\OLE32.LIB
C:\PROGRAM FILES (X86)\MICROSOFT SDKS\WINDOWS\V7.0A\LIB\OLEAUT32.LIB
C:\PROGRAM FILES (X86)\MICROSOFT SDKS\WINDOWS\V7.0A\LIB\UUID.LIB
C:\PROGRAM FILES (X86)\MICROSOFT SDKS\WINDOWS\V7.0A\LIB\ODBC32.LIB
C:\PROGRAM FILES (X86)\MICROSOFT SDKS\WINDOWS\V7.0A\LIB\ODBCCP32.LIB
C:\USERS\MOLOTALIEV\DESKTOP\IRAY\IRAY-DETECTOR-CAPTURE-TOOL-MASTER\SRC\IRAY DETECTOR CAPTURE TOOL\RELEASE\APP.RES
C:\USERS\MOLOTALIEV\DESKTOP\IRAY\IRAY-DETECTOR-CAPTURE-TOOL-MASTER\SRC\IRAY DETECTOR CAPTURE TOOL\RELEASE\ASSEMBLYINFO.OBJ
C:\USERS\MOLOTALIEV\DESKTOP\IRAY\IRAY-DETECTOR-CAPTURE-TOOL-MASTER\SRC\IRAY DETECTOR CAPTURE TOOL\RELEASE\FLR_P.OBJ
C:\USERS\MOLOTALIEV\DESKTOP\IRAY\IRAY-DETECTOR-CAPTURE-TOOL-MASTER\SRC\IRAY DETECTOR CAPTURE TOOL\RELEASE\IRAY DETECTOR CAPTURE TOOL.OBJ
C:\USERS\MOLOTALIEV\DESKTOP\IRAY\IRAY-DETECTOR-CAPTURE-TOOL-MASTER\SRC\IRAY DETECTOR CAPTURE TOOL\RELEASE\DETECTOR.OBJ
C:\USERS\MOLOTALIEV\DESKTOP\IRAY\IRAY-DETECTOR-CAPTURE-TOOL-MASTER\SRC\IRAY DETECTOR CAPTURE TOOL\RELEASE\DETECTORMANAGER.OBJ
C:\USERS\MOLOTALIEV\DESKTOP\IRAY\IRAY-DETECTOR-CAPTURE-TOOL-MASTER\SRC\IRAY DETECTOR CAPTURE TOOL\RELEASE\UTIL.OBJ
C:\USERS\MOLOTALIEV\DESKTOP\IRAY\IRAY-DETECTOR-CAPTURE-TOOL-MASTER\SRC\IRAY DETECTOR CAPTURE TOOL\RELEASE\WFEVENTRECEIVER.OBJ
C:\USERS\MOLOTALIEV\DESKTOP\IRAY\IRAY-DETECTOR-CAPTURE-TOOL-MASTER\SRC\IRAY DETECTOR CAPTURE TOOL\RELEASE\STDAFX.OBJ
C:\USERS\MOLOTALIEV\DESKTOP\IRAY\IRAY-DETECTOR-CAPTURE-TOOL-MASTER\SRC\IRAY DETECTOR CAPTURE TOOL\RELEASE\.NETFRAMEWORK,VERSION=V4.0.ASSEMBLYATTRIBUTES.OBJ
C:\WINDOWS\GLOBALIZATION\SORTING\SORTDEFAULT.NLS
C:\WINDOWS\MICROSOFT.NET\FRAMEWORK\V2.0.50727\MSCORWKS.DLL
C:\WINDOWS\MICROSOFT.NET\FRAMEWORK\V4.0.30319\CLR.DLL
C:\PROGRAM FILES (X86)\MICROSOFT VISUAL STUDIO 10.0\VC\BIN\LINK.EXE.CONFIG
C:\PROGRAM FILES (X86)\MICROSOFT VISUAL STUDIO 10.0\VC\LIB\MSVCRT.LIB
C:\PROGRAM FILES (X86)\MICROSOFT VISUAL STUDIO 10.0\VC\LIB\OLDNAMES.LIB
C:\PROGRAM FILES (X86)\MICROSOFT VISUAL STUDIO 10.0\VC\LIB\MSVCMRT.LIB
C:\PROGRAM FILES (X86)\MICROSOFT SDKS\WINDOWS\V7.0A\LIB\MSCOREE.LIB
C:\PROGRAM FILES (X86)\MICROSOFT VISUAL STUDIO 10.0\VC\LIB\MSVCPRT.LIB
C:\PROGRAM FILES (X86)\MICROSOFT VISUAL STUDIO 10.0\VC\BIN\CVTRES.EXE
C:\WINDOWS\SYSTEM32\TZRES.DLL
C:\USERS\MOLOTALIEV\DESKTOP\IRAY\IRAY-DETECTOR-CAPTURE-TOOL-MASTER\SRC\IRAY DETECTOR CAPTURE TOOL\RELEASE\IRAYDETECTORCAPTURETOOL.MAINVIEW.RESOURCES
C:\WINDOWS\WINSXS\X86_MICROSOFT.VC90.CRT_1FC8B3B9A1E18E3B_9.0.30729.6161_NONE_50934F2EBCB7EB57\MSVCR90.DLL
C:\WINDOWS\SYSTEM32\RSAENH.DLL
