2019-11-08 22:08:33.179	[always]	Start to create detector proxy, work_dir = D:\GitHubAndGitlab\iray-detector-capture-tool\src\Debug\work_dir\Venu1717X\
2019-11-08 22:09:01.573	[always]	Begain Destroy
2019-11-08 22:09:01.573	[info  ]	EventProcessor thread stopped
2019-11-08 22:09:01.874	[always]	End destroyed
2019-11-08 22:09:01.874	[info  ]	HeartbeatMonitor thread stopped
2019-11-12 21:56:37.562	[always]	Start to create detector proxy, work_dir = D:\GitHubAndGitlab\iray-detector-capture-tool\src\Debug\work_dir\Venu1717X\
2019-11-12 21:56:57.683	[always]	Begain Destroy
2019-11-12 21:56:57.683	[info  ]	EventProcessor thread stopped
2019-11-12 21:56:57.984	[always]	End destroyed
2019-11-12 21:56:58.028	[info  ]	HeartbeatMonitor thread stopped
